<?xml version="1.0" encoding="utf-8"?>
<!-- Generator: Adobe Illustrator 19.2.0, SVG Export Plug-In . SVG Version: 6.00 Build 0)  -->
<svg version="1.1" id="Layer_1" xmlns="http://www.w3.org/2000/svg" xmlns:xlink="http://www.w3.org/1999/xlink" x="0px" y="0px"
	 width="80px" height="15px" viewBox="0 0 80 15" enable-background="new 0 0 80 15" xml:space="preserve">
<g>
	<path fill="#636466" d="M0,0h0.6h78.9H80v0.5v14.1V15h-0.6H0.6H0v-0.4V0.5V0z M1,1L1,14h8.2c-0.8-0.3-1.5-0.8-2.1-1.4
		C5.7,11.2,5,9.5,5,7.5C5,7.2,5,7,5,6.7C5,6.5,5.1,6.3,5.1,6c0,0,0-0.1,0.1-0.2c0-0.1,0-0.2,0.1-0.3c0-0.1,0-0.2,0.1-0.2
		c0.1-0.3,0.1-0.5,0.2-0.7C5.7,4.4,5.8,4.2,5.8,4c0.1-0.2,0.2-0.4,0.4-0.6C6.3,3.2,6.5,3,6.7,2.9c0.2-0.2,0.4-0.4,0.5-0.6
		c0.6-0.6,1.3-1,2-1.3H1z M12.6,1.5c-1.8,0-3.2,0.6-4.4,1.8C7,4.5,6.3,5.9,6.3,7.5c0,1.6,0.6,3,1.9,4.2c0.6,0.6,1.3,1,2,1.3
		c0.7,0.3,1.5,0.4,2.4,0.4c0.3,0,0.5,0,0.8,0c0.2,0,0.5-0.1,0.7-0.1c0.1,0,0.2,0,0.3-0.1c0.1,0,0.3-0.1,0.3-0.1
		c0.2,0,0.4-0.1,0.6-0.2c0.2-0.1,0.4-0.2,0.6-0.4c0.2-0.2,0.4-0.3,0.6-0.4c0.2-0.1,0.4-0.3,0.6-0.4c1.2-1.1,1.8-2.5,1.8-4.2
		c0-0.9-0.1-1.6-0.4-2.3c-0.3-0.7-0.7-1.3-1.3-1.9c-0.4-0.4-0.9-0.7-1.4-1c-0.5-0.3-1-0.4-1.5-0.6C13.8,1.6,13.2,1.5,12.6,1.5z
		 M10.5,5.2c0.3,0,0.5,0,0.7,0c0.2,0,0.4,0.1,0.6,0.2c0.2,0.1,0.3,0.2,0.5,0.4c0.1,0.1,0.3,0.3,0.4,0.4l-1,0.5
		c-0.2-0.3-0.5-0.5-0.9-0.6c-0.6,0-1,0.4-1,1.3c0,0.4,0.1,0.8,0.2,1c0.2,0.2,0.4,0.3,0.7,0.3c0.5,0,0.8-0.2,1-0.6l1,0.5
		c-0.4,0.8-1.1,1.1-2,1.1c-0.7,0-1.2-0.2-1.7-0.6C8.5,8.8,8.2,8.2,8.2,7.5c0-0.7,0.2-1.2,0.6-1.6c0.2-0.2,0.4-0.4,0.7-0.5
		C9.8,5.3,10.1,5.2,10.5,5.2z M15,5.2L15,5.2c0.9,0,1.6,0.3,2,1l-1,0.5c0-0.1-0.1-0.2-0.2-0.2c0,0-0.1-0.1-0.2-0.2
		c-0.1-0.1-0.2-0.1-0.2-0.1c-0.1,0-0.1,0-0.2,0c-0.4,0-0.6,0.1-0.8,0.3c-0.2,0.2-0.2,0.5-0.2,1c0,0.9,0.3,1.3,1,1.3
		c0.2,0,0.4-0.1,0.6-0.2C15.8,8.5,16,8.4,16,8.2l1,0.5c-0.4,0.8-1.1,1.1-2,1.1c-0.1,0-0.2,0-0.4,0c0,0-0.1,0-0.2,0
		c-0.1,0-0.2,0-0.2,0c-0.1,0-0.3-0.1-0.3-0.1c0,0-0.1,0-0.1-0.1c-0.1,0-0.1-0.1-0.2-0.1c-0.1,0-0.2-0.1-0.2-0.2
		c-0.4-0.4-0.6-0.9-0.6-1.6c0-0.7,0.2-1.2,0.6-1.6c0.2-0.2,0.4-0.4,0.7-0.5C14.3,5.3,14.6,5.2,15,5.2z M16.2,1
		c0.6,0.3,1.3,0.7,1.9,1.3c1.4,1.5,2.2,3.2,2.2,5.2c0,1-0.2,1.9-0.5,2.8c-0.3,0.9-0.9,1.6-1.6,2.3c-0.7,0.7-1.4,1.1-2.2,1.5h63V1
		H16.2z M22.1,1.9H78v11.3H22.1c1.4-1.8,2.2-3.7,2.2-5.6c0-0.4,0-0.8-0.1-1.2c-0.1-0.5-0.2-0.9-0.3-1.2c-0.1-0.3-0.3-0.7-0.4-1.1
		c-0.2-0.3-0.4-0.7-0.6-1.1C22.6,2.5,22.3,2.2,22.1,1.9z M26.6,4.7v5.6h2.6c1.7,0,2.4-0.8,2.4-1.7c0-0.7-0.4-1-1-1.4
		c0.4-0.3,0.8-0.6,0.8-1.1c0-1.2-1.3-1.5-2.4-1.4H26.6z M28.2,5.6H29c0.8,0,1,1.2,0,1.2h-0.9V5.6z M28.2,7.8l1,0
		c1.1,0,1.2,1.5,0,1.5h-1V7.8z M31.4,4.7l2.3,3.2v2.4h1.5V7.9l2.2-3.2h-1.7l-1.4,2l-1.4-2H31.4z M36.7,7.6v1h2.5v-1H36.7z M40.4,4.8
		v5.6h1.4V6.5l2.2,3.9h1.8V4.8h-1.5v3.9l-2.2-3.9H40.4z M47.2,4.8v5.6h1.7c2.4,0,3.9-0.4,3.9-2.8s-1.6-2.8-3.9-2.8H47.2z M48.8,5.9
		c1.2,0,2.4,0.2,2.4,1.7c0,1.3-1.1,1.8-2.4,1.7V5.9z"/>
</g>
</svg>
